<?xml version="1.0" standalone="no"?>
<!DOCTYPE svg PUBLIC "-//W3C//DTD SVG 20010904//EN"
 "http://www.w3.org/TR/2001/REC-SVG-20010904/DTD/svg10.dtd">
<svg version="1.0" xmlns="http://www.w3.org/2000/svg"
 width="16.000000pt" height="16.000000pt" viewBox="0 0 16.000000 16.000000"
 preserveAspectRatio="xMidYMid meet">
<metadata>
Created by potrace 1.11, written by Peter Selinger 2001-2013
</metadata>
<g transform="translate(0.000000,16.000000) scale(0.003125,-0.003125)"
fill="#000000" stroke="none">
<path d="M2216 4845 c-564 -71 -1036 -263 -1436 -583 -588 -472 -871 -1179
-736 -1844 50 -247 130 -440 284 -693 109 -177 143 -284 145 -445 0 -52 -5
-129 -12 -170 -29 -170 -133 -413 -263 -619 -34 -53 -67 -108 -75 -123 -27
-53 10 -108 73 -108 23 0 45 13 87 49 137 120 251 195 412 272 337 160 721
205 1150 135 482 -80 857 -87 1239 -25 440 72 860 248 1198 502 518 389 827
968 828 1550 1 1023 -879 1899 -2096 2088 -180 27 -629 36 -798 14z"/>
</g>
</svg>
